<svg xmlns="http://www.w3.org/2000/svg" width="38.209" height="37" viewBox="0 0 38.209 37">
  <g id="Icon_" data-name="Icon " transform="translate(-0.057 -0.122)">
    <rect id="Area_ICON:feather_twitter_SIZE:MEDIUM_STYLE:STYLE2_" data-name="Area [ICON:feather/twitter][SIZE:MEDIUM][STYLE:STYLE2]" width="38" height="37" transform="translate(0.266 0.122)" fill="rgba(253,73,198,0.35)" opacity="0"/>
    <g id="Icon" transform="translate(0.891 2.7)">
      <path id="Path" d="M37.3,2.51a17.662,17.662,0,0,1-5.206,2.7,7.133,7.133,0,0,0-8.251-2.2A7.91,7.91,0,0,0,19.067,10.5V12.26A17.353,17.353,0,0,1,4.149,4.272s-6.63,15.87,8.289,22.925a18.455,18.455,0,0,1-11.6,3.525c14.918,8.817,33.153,0,33.153-20.277a8.4,8.4,0,0,0-.133-1.464A13.839,13.839,0,0,0,37.3,2.51Z" transform="translate(-0.833 -2.491)" fill="none" stroke="#3d3d3d" stroke-linecap="round" stroke-linejoin="round" stroke-width="1.667"/>
    </g>
  </g>
</svg>
